<?xml version="1.0" encoding="UTF-8"?>
<svg width="20px" height="20px" viewBox="0 0 20 20" version="1.1" xmlns="http://www.w3.org/2000/svg" xmlns:xlink="http://www.w3.org/1999/xlink">
    <!-- Generator: sketchtool 52.2 (67145) - http://www.bohemiancoding.com/sketch -->
    <title>12D2F37B-256F-44CD-9EE1-E3EA7B3E7C49</title>
    <desc>Created with sketchtool.</desc>
    <g id="Page-1" stroke="none" stroke-width="1" fill="none" fill-rule="evenodd">
        <g id="iPhone-8" transform="translate(-264.000000, -418.000000)" fill="#FFFFFF">
            <g id="Group-6" transform="translate(77.000000, 407.000000)">
                <g id="Group-11" transform="translate(187.000000, 11.000000)">
                    <path d="M19.990467,15.783871 C20.0328468,16.1087638 19.933903,16.3912492 19.6940506,16.6313271 L16.8780942,19.4278286 C16.7510586,19.5690713 16.5852411,19.6892315 16.3805726,19.7879975 C16.1759041,19.886902 15.974799,19.9504612 15.7772572,19.9786751 C15.7631421,19.9786751 15.7206931,19.98231 15.6500832,19.9893722 C15.5796116,19.9963997 15.4878637,20 15.3749431,20 C15.1066876,20 14.6726146,19.9540961 14.0727242,19.8622538 C13.4728337,19.7704114 12.7388847,19.5443885 11.8708772,19.1842888 C11.002662,18.82412 10.0181705,18.2837974 8.91722969,17.5635289 C7.81628887,16.843295 6.64470351,15.8545269 5.40257741,14.5974324 C4.41452255,13.6228578 3.59584852,12.690656 2.94655533,11.8008616 C2.29726214,10.9109981 1.77500457,10.0882594 1.37978263,9.33261096 C0.98452609,8.57696256 0.688109633,7.89193549 0.490498662,7.27752978 C0.29288769,6.66312406 0.158794531,6.13346396 0.0882191837,5.68854948 C0.0176438367,5.24363499 -0.010586302,4.89405933 0.00352876735,4.63982248 C0.0176438367,4.38558563 0.0247013714,4.24434294 0.0247013714,4.2160944 C0.0529315102,4.01835463 0.116449323,3.81708379 0.215254808,3.61228188 C0.314060294,3.40747998 0.434038384,3.24151981 0.575189078,3.11440139 L3.39114542,0.296609656 C3.58875639,0.0988698854 3.8145975,0 4.06866875,0 C4.25216466,0 4.41448795,0.05296601 4.55563865,0.15889803 C4.69678934,0.26483005 4.81676743,0.395479541 4.91557292,0.550846504 L7.18104156,4.85168652 C7.30807718,5.07767483 7.34336485,5.32484954 7.28690458,5.59321066 C7.2304443,5.86157178 7.11046621,6.08756008 6.92697031,6.27117559 L5.88951271,7.30930938 C5.86128257,7.33755792 5.8365812,7.3834618 5.81540859,7.44702101 C5.79423599,7.51058022 5.78364969,7.56354623 5.78364969,7.60591904 C5.84010996,7.90252869 5.96714559,8.24151116 6.16475656,8.62286643 C6.33413739,8.96184889 6.59526618,9.37498377 6.94814291,9.86227106 C7.30101965,10.3495584 7.80210461,10.9109634 8.4513978,11.5465556 C9.08657592,12.1963412 9.6511787,12.7012146 10.1452061,13.0614527 C10.6391298,13.4214831 11.0521339,13.686417 11.3838381,13.8559082 C11.7155422,14.0253995 11.9696134,14.1278004 12.1460172,14.1630072 L12.4106056,14.2160079 C12.4388357,14.2160079 12.4848135,14.20538 12.5482621,14.1842282 C12.6117799,14.1630072 12.6576539,14.1383244 12.6859186,14.1100412 L13.8927225,12.8812298 C14.1469321,12.6552761 14.4432102,12.5422819 14.7820064,12.5422819 C15.0220318,12.5422819 15.2124814,12.5846201 15.3536321,12.6694004 L15.3747702,12.6694004 L19.4610481,15.0846504 C19.7575684,15.2684044 19.9339722,15.5013856 19.990467,15.783871 Z" id="call_ico"></path>
                </g>
            </g>
        </g>
    </g>
</svg>