<?xml version="1.0" encoding="UTF-8"?>
<svg width="20px" height="20px" viewBox="0 0 20 20" version="1.1" xmlns="http://www.w3.org/2000/svg" xmlns:xlink="http://www.w3.org/1999/xlink">
    <!-- Generator: sketchtool 52.2 (67145) - http://www.bohemiancoding.com/sketch -->
    <title>D46DBBFC-2A3A-4CDF-9955-CD1C800BB88C</title>
    <desc>Created with sketchtool.</desc>
    <defs>
        <path d="M10,0 C15.5228475,-1.01453063e-15 20,4.4771525 20,10 C20,15.5228475 15.5228475,20 10,20 C4.4771525,20 6.76353751e-16,15.5228475 0,10 C-6.76353751e-16,4.4771525 4.4771525,1.01453063e-15 10,0 Z M10.0005859,3.75 C8.30317243,3.75 8.09014938,3.75742187 7.42347577,3.78776042 C6.75810425,3.81822917 6.30393285,3.92356771 5.90653288,4.078125 C5.49546089,4.23776042 5.14675934,4.45130208 4.79935989,4.79882812 C4.45170002,5.14622396 4.23815613,5.49492187 4.07799821,5.90585938 C3.92304868,6.30338542 3.81757883,6.75768229 3.7876306,7.42278646 C3.75781258,8.08945312 3.75,8.30260417 3.75,10 C3.75,11.6973958 3.75755216,11.9097656 3.78776081,12.5764323 C3.81836009,13.2417969 3.92369973,13.6959635 4.07812842,14.0933594 C4.23789571,14.5044271 4.4514396,14.853125 4.79896926,15.2005208 C5.1462385,15.5481771 5.49494005,15.7622396 5.90575162,15.921875 C6.30341201,16.0764323 6.75771362,16.1817708 7.42295493,16.2122396 C8.08962854,16.2425781 8.30252138,16.25 9.99980469,16.25 C11.6973484,16.25 11.9097204,16.2425781 12.576394,16.2122396 C13.2417655,16.1817708 13.6964578,16.0764323 14.0941182,15.921875 C14.5050599,15.7622396 14.8532407,15.5481771 15.2005099,15.2005208 C15.5481698,14.853125 15.7617137,14.5044271 15.9218716,14.0934896 C16.075519,13.6959635 16.1809889,13.2416667 16.2122392,12.5765625 C16.2421874,11.9098958 16.25,11.6973958 16.25,10 C16.25,8.30260417 16.2421874,8.08958333 16.2122392,7.42291667 C16.1809889,6.75755208 16.075519,6.30338542 15.9218716,5.90598958 C15.7617137,5.49492188 15.5481698,5.14622396 15.2005099,4.79882813 C14.85285,4.45117188 14.5051902,4.23763021 14.0937275,4.078125 C13.6952859,3.92356771 13.2408541,3.81822917 12.5754826,3.78776042 C11.9088089,3.75742188 11.6965672,3.75 9.9986328,3.75 L10.0005859,3.75 Z M9.43990302,4.87630208 C9.606311,4.87604167 9.79199002,4.87630208 10.0005859,4.87630208 C11.6693533,4.87630208 11.8671418,4.88229167 12.5261331,4.91223958 C13.1355144,4.94010417 13.466247,5.04192708 13.6865618,5.12747396 C13.9782315,5.24075521 14.1861764,5.37617187 14.4047985,5.59492187 C14.6235508,5.81367187 14.7589688,6.02200521 14.8725117,6.31367187 C14.9580595,6.53372396 15.0600136,6.86445313 15.0877483,7.47382813 C15.1176965,8.13268229 15.124207,8.33059896 15.124207,9.99856771 C15.124207,11.6665365 15.1176965,11.8644531 15.0877483,12.5233073 C15.0598834,13.1326823 14.9580595,13.4634115 14.8725117,13.6834635 C14.7592293,13.9751302 14.6235508,14.1828125 14.4047985,14.4014323 C14.1860462,14.6201823 13.9783618,14.755599 13.6865618,14.8688802 C13.4665075,14.9548177 13.1355144,15.0563802 12.5261331,15.0842448 C11.8672721,15.1141927 11.6693533,15.1207031 10.0005859,15.1207031 C8.33168835,15.1207031 8.13389983,15.1141927 7.4750388,15.0842448 C6.86565745,15.0561198 6.53492484,14.9542969 6.31447984,14.86875 C6.02281013,14.7554688 5.81447463,14.6200521 5.59572235,14.4013021 C5.37697007,14.1825521 5.241552,13.9747396 5.12800915,13.6829427 C5.04246138,13.4628906 4.94050719,13.1321615 4.91277253,12.5227865 C4.8828243,11.8639323 4.87683465,11.6660156 4.87683465,9.99700521 C4.87683465,8.32799479 4.8828243,8.13111979 4.91277253,7.47226563 C4.9406374,6.86289062 5.04246138,6.53216146 5.12800915,6.31184896 C5.24129158,6.02018229 5.37697007,5.81184896 5.59572235,5.59309896 C5.81447463,5.37434896 6.02281013,5.23893229 6.31447984,5.12539062 C6.53479463,5.03945312 6.86565745,4.93789062 7.4750388,4.90989583 C8.05160731,4.88385417 8.27504714,4.87604167 9.43990302,4.87473958 L9.43990302,4.87630208 Z M13.3368186,5.9140625 C12.9227518,5.9140625 12.5868108,6.24960938 12.5868108,6.66380208 C12.5868108,7.07786458 12.9227518,7.41380208 13.3368186,7.41380208 C13.7508854,7.41380208 14.0868264,7.07786458 14.0868264,6.66380208 C14.0868264,6.24973958 13.7508854,5.91380208 13.3368186,5.91380208 L13.3368186,5.9140625 Z M10.0005859,6.79036458 C8.22804144,6.79036458 6.79091709,8.22747396 6.79091709,10 C6.79091709,11.772526 8.22804144,13.2089844 10.0005859,13.2089844 C11.7731304,13.2089844 13.209734,11.772526 13.209734,10 C13.209734,8.22747396 11.7730002,6.79036458 10.0004557,6.79036458 L10.0005859,6.79036458 Z M10.0005859,7.91666667 C11.1511188,7.91666667 12.083941,8.84934896 12.083941,10 C12.083941,11.1505208 11.1511188,12.0833333 10.0005859,12.0833333 C8.84992292,12.0833333 7.91723091,11.1505208 7.91723091,10 C7.91723091,8.84934896 8.84992292,7.91666667 10.0005859,7.91666667 Z" id="path-1"></path>
    </defs>
    <g id="Page-1" stroke="none" stroke-width="1" fill="none" fill-rule="evenodd" opacity="0.5">
        <g id="Desktop" transform="translate(-1365.000000, -19.000000)">
            <g id="header" transform="translate(-30.000000, 0.000000)">
                <g id="instagram_3" transform="translate(1395.000000, 19.000000)">
                    <g id="Instagram-Copy-2">
                        <mask id="mask-2" fill="white">
                            <use xlink:href="#path-1"></use>
                        </mask>
                        <use id="Combined-Shape" fill="#FFFFFF" xlink:href="#path-1"></use>
                    </g>
                </g>
            </g>
        </g>
    </g>
</svg>