<?xml version="1.0" encoding="UTF-8"?>
<svg width="20px" height="20px" viewBox="0 0 20 20" version="1.1" xmlns="http://www.w3.org/2000/svg" xmlns:xlink="http://www.w3.org/1999/xlink">
    <!-- Generator: sketchtool 52.2 (67145) - http://www.bohemiancoding.com/sketch -->
    <title>68D44414-5D28-4D36-9F8C-3356A5AF4C18</title>
    <desc>Created with sketchtool.</desc>
    <g id="Page-1" stroke="none" stroke-width="1" fill="none" fill-rule="evenodd" opacity="0.5">
        <g id="Desktop" transform="translate(-1319.000000, -19.000000)" fill="#FFFFFF">
            <g id="header" transform="translate(-30.000000, 0.000000)">
                <g id="fb_5" transform="translate(1349.000000, 19.000000)">
                    <path d="M12.596875,6.66 L11.655625,6.660625 C10.9175,6.660625 10.774375,7.01125 10.774375,7.525625 L10.774375,8.660625 L12.535,8.660625 L12.305625,10.43875 L10.774375,10.43875 L10.774375,15 L8.93875,15 L8.93875,10.43875 L7.40375,10.43875 L7.40375,8.660625 L8.93875,8.660625 L8.93875,7.35 C8.93875,5.828125 9.868125,5 11.225,5 C11.875,5 12.43375,5.048125 12.596875,5.07 L12.596875,6.66 Z M0,10 C0,15.5228475 4.47593818,20 10,20 L10,20 C15.5228475,20 20,15.5240618 20,10 L20,10 C20,4.4771525 15.5240618,0 10,0 L10,0 C4.4771525,0 0,4.47593818 0,10 L0,10 Z" id="Fill-92-Copy-2"></path>
                </g>
            </g>
        </g>
    </g>
</svg>