<?xml version="1.0" encoding="UTF-8"?>
<svg width="85px" height="86px" viewBox="0 0 85 86" version="1.1" xmlns="http://www.w3.org/2000/svg" xmlns:xlink="http://www.w3.org/1999/xlink">
    <!-- Generator: sketchtool 52.2 (67145) - http://www.bohemiancoding.com/sketch -->
    <title>8992D2E7-FB37-4A14-862F-B9E7BFE6BEEF</title>
    <desc>Created with sketchtool.</desc>
    <g id="Page-1" stroke="none" stroke-width="1" fill="none" fill-rule="evenodd">
        <g id="Desktop" transform="translate(-808.000000, -5107.000000)">
            <g id="logo_map" transform="translate(808.000000, 5107.000000)">
                <circle id="Oval" stroke="#000000" stroke-width="6" fill-rule="nonzero" cx="42.5" cy="42.5" r="39.5"></circle>
                <path d="M3,45.5 L82,43.4208417" id="Line" stroke="#000000" stroke-width="2" stroke-linecap="square" fill-rule="nonzero"></path>
                <path d="M3,45.5 L82,43.4208417" id="Line-Copy" stroke="#000000" stroke-width="2" stroke-linecap="square" fill-rule="nonzero" transform="translate(42.500000, 44.500000) rotate(90.000000) translate(-42.500000, -44.500000) "></path>
                <circle id="Oval" stroke-opacity="0" stroke="#FFFFFF" fill="#000000" cx="43" cy="42" r="27"></circle>
                <path d="M37.5200082,56.5991984 L30.6994667,56.5991984 L30.6994667,35.0360721 L24,36.9799599 L24,31.8496994 L36.8944556,27.4208417 L37.5200082,27.4208417 L37.5200082,56.5991984 Z M47.7131854,39.1843687 L50.9216649,39.1843687 C53.4642464,39.1843687 54.735518,37.9485762 54.735518,35.4769539 C54.735518,34.5150253 54.4328343,33.73013 53.8274577,33.1222445 C53.2220812,32.514359 52.3678405,32.2104208 51.2647099,32.2104208 C50.3633715,32.2104208 49.579757,32.4709393 48.9138428,32.991984 C48.2479287,33.5130287 47.9149766,34.1609848 47.9149766,34.9358717 L41.1146142,34.9358717 C41.1146142,33.3994579 41.5450978,32.0300661 42.4060777,30.8276553 C43.2670577,29.6252445 44.4609768,28.6867101 45.9878709,28.012024 C47.514765,27.337338 49.1929781,27 51.0225605,27 C54.2915938,27 56.8610423,27.7414756 58.7309831,29.2244489 C60.6009239,30.7074222 61.5358803,32.74481 61.5358803,35.3366733 C61.5358803,36.5925246 61.1491178,37.7782175 60.3755811,38.8937876 C59.6020444,40.0093576 58.4753884,40.9144922 56.9955791,41.6092184 C58.5561052,42.1703435 59.7802927,43.0220384 60.6681783,44.1643287 C61.5560639,45.3066189 62,46.7194305 62,48.4028056 C62,51.0080291 60.9910543,53.0921766 58.9731325,54.6553106 C56.9552107,56.2184447 54.3050466,57 51.0225605,57 C49.0988085,57 47.3129745,56.6359422 45.665005,55.9078156 C44.0170356,55.1796891 42.769306,54.1710151 41.9217789,52.8817635 C41.0742518,51.5925119 40.6504946,50.1262607 40.6504946,48.4829659 L47.4912151,48.4829659 C47.4912151,49.378094 47.8544356,50.1529693 48.5808874,50.8076152 C49.3073392,51.4622611 50.2019378,51.7895792 51.2647099,51.7895792 C52.4620102,51.7895792 53.4171455,51.4589211 54.1301445,50.7975952 C54.8431435,50.1362692 55.1996377,49.2912543 55.1996377,48.2625251 C55.1996377,46.7929118 54.8296909,45.7508381 54.0897863,45.1362725 C53.3498816,44.521707 52.3274833,44.2144289 51.0225605,44.2144289 L47.7131854,44.2144289 L47.7131854,39.1843687 Z" id="13" fill="#0CCA22"></path>
            </g>
        </g>
    </g>
</svg>