<?xml version="1.0" encoding="UTF-8"?>
<svg width="200px" height="62px" viewBox="0 0 200 62" version="1.1" xmlns="http://www.w3.org/2000/svg" xmlns:xlink="http://www.w3.org/1999/xlink">
    <!-- Generator: sketchtool 52.2 (67145) - http://www.bohemiancoding.com/sketch -->
    <title>22DB1080-F1F3-4A94-9F10-C54CA7DA4FF4</title>
    <desc>Created with sketchtool.</desc>
    <g id="Page-1" stroke="none" stroke-width="1" fill="none" fill-rule="evenodd">
        <g id="Desktop" transform="translate(-408.000000, -5657.000000)">
            <g id="footer" transform="translate(0.000000, 5527.000000)">
                <g id="logo_footer" transform="translate(408.000000, 130.000000)">
                    <path d="M4.86163135,56.5862229 L4.92406,56.8281339 L4.99429224,56.5862229 L8.56833262,46.6288527 L9.62181614,46.6288527 L5.3922749,57.9908676 L4.47145227,57.9908676 L0.24191103,46.6288527 L1.28759097,46.6288527 L4.86163135,56.5862229 Z M15.2096711,58.1469392 C14.491738,58.1469392 13.8427467,57.9700598 13.2626775,57.6162957 C12.6826084,57.2625315 12.2313058,56.7696102 11.9087561,56.1375169 C11.5862065,55.5054237 11.424934,54.7966054 11.424934,54.011041 L11.424934,53.6754869 C11.424934,52.8639104 11.5823047,52.1329822 11.8970507,51.4826805 C12.2117968,50.8323788 12.6500936,50.3212493 13.2119542,49.9492767 C13.7738149,49.5773041 14.3824882,49.3913206 15.0379923,49.3913206 C16.0628678,49.3913206 16.8757328,49.7411777 17.4766116,50.4409024 C18.0774904,51.140627 18.3779253,52.0965562 18.3779253,53.3087186 L18.3779253,53.8315586 L12.3535603,53.8315586 L12.3535603,54.011041 C12.3535603,54.9682851 12.6279835,55.765543 13.1768381,56.4028387 C13.7256928,57.0401344 14.4163028,57.3587775 15.248689,57.3587775 C15.7481208,57.3587775 16.1890187,57.2677366 16.5713961,57.0856521 C16.9537735,56.9035676 17.3010294,56.6122368 17.6131743,56.211651 L18.1984429,56.6564551 C17.5117243,57.6501162 16.515477,58.1469392 15.2096711,58.1469392 Z M15.0379923,50.187286 C14.3356665,50.187286 13.7439008,50.4448016 13.2626775,50.9598405 C12.7814542,51.4748795 12.4888229,52.1667902 12.3847746,53.0355933 L17.4492991,53.0355933 L17.4492991,52.9341467 C17.423287,52.1225701 17.1917831,51.4618735 16.7547803,50.952037 C16.3177775,50.4422004 15.7455206,50.187286 15.0379923,50.187286 Z M21.0316336,53.6910941 C21.0316336,52.369681 21.324265,51.3227109 21.9095365,50.5501525 C22.4948081,49.7775941 23.2894648,49.3913206 24.2935307,49.3913206 C25.4432641,49.3913206 26.3172565,49.8491262 26.9155341,50.764751 L26.9623556,49.5473923 L27.8363568,49.5473923 L27.8363568,57.8191888 C27.8363568,58.9064933 27.5320201,59.7674798 26.9233377,60.4021743 C26.3146553,61.0368688 25.4900851,61.3542113 24.4496023,61.3542113 C23.8617296,61.3542113 23.3011779,61.2228523 22.7679305,60.9601304 C22.2346831,60.6974085 21.8145945,60.3475514 21.5076521,59.9105487 L22.030492,59.3486908 C22.6911986,60.1602673 23.4767513,60.5660495 24.3871737,60.5660495 C25.1675357,60.5660495 25.776209,60.3358462 26.2132118,59.8754325 C26.6502145,59.4150189 26.8765161,58.7764322 26.8921234,57.9596533 L26.8921234,56.8983662 C26.2938458,57.7307524 25.4224546,58.1469392 24.2779235,58.1469392 C23.2998697,58.1469392 22.5143171,57.756764 21.9212419,56.976402 C21.3281667,56.1960399 21.0316336,55.1425669 21.0316336,53.8159514 L21.0316336,53.6910941 Z M21.975867,53.8549693 C21.975867,54.931869 22.1917639,55.7811503 22.6235642,56.4028387 C23.0553646,57.0245272 23.6640378,57.3353667 24.4496023,57.3353667 C25.5993358,57.3353667 26.4135013,56.8203355 26.8921234,55.7902576 L26.8921234,51.865056 C26.673622,51.324005 26.3588807,50.9117199 25.94789,50.6281883 C25.5368993,50.3446568 25.0426774,50.2028931 24.4652095,50.2028931 C23.679645,50.2028931 23.0683706,50.5111315 22.6313678,51.1276175 C22.1943651,51.7441036 21.975867,52.6532117 21.975867,53.8549693 Z M36.8109662,57.9908676 C36.7173227,57.7255445 36.6574959,57.3327681 36.6314838,56.8125268 C36.3037317,57.2391247 35.8862443,57.5681724 35.3790089,57.7996798 C34.8717736,58.0311872 34.3346324,58.1469392 33.7675693,58.1469392 C32.9559928,58.1469392 32.2991979,57.9206376 31.797165,57.4680276 C31.2951321,57.0154176 31.0441194,56.4431607 31.0441194,55.7512397 C31.0441194,54.9292583 31.3861729,54.2789663 32.0702903,53.8003442 C32.7544077,53.3217222 33.7077358,53.0824147 34.930303,53.0824147 L36.6236802,53.0824147 L36.6236802,52.1225742 C36.6236802,51.5190942 36.4376967,51.0443811 36.0657241,50.6984206 C35.6937515,50.35246 35.151408,50.1794824 34.4386774,50.1794824 C33.7883756,50.1794824 33.2499339,50.3459571 32.823336,50.6789116 C32.396738,51.0118661 32.1834423,51.4124459 32.1834423,51.8806632 L31.2470125,51.8728596 C31.2470125,51.2017482 31.5591526,50.6203872 32.1834423,50.1287591 C32.8077319,49.637131 33.5750764,49.3913206 34.4854988,49.3913206 C35.4271357,49.3913206 36.1697692,49.6267263 36.7134214,50.0975448 C37.2570736,50.5683632 37.5366992,51.2251581 37.5523064,52.0679491 L37.5523064,56.0633829 C37.5523064,56.8801619 37.638145,57.4914363 37.8098246,57.8972246 L37.8098246,57.9908676 L36.8109662,57.9908676 Z M33.8768195,57.3197596 C34.5011091,57.3197596 35.0590596,57.1688918 35.5506877,56.8671518 C36.0423158,56.5654118 36.3999764,56.1622308 36.6236802,55.6575967 L36.6236802,53.8003442 L34.9537137,53.8003442 C34.0224817,53.8107491 33.2941547,53.9811256 32.7687109,54.3114788 C32.2432671,54.6418321 31.9805491,55.0957359 31.9805491,55.6732038 C31.9805491,56.1466235 32.156128,56.5393998 32.5072909,56.8515447 C32.8584538,57.1636895 33.3149588,57.3197596 33.8768195,57.3197596 Z M42.141303,49.5473923 L42.1725173,50.9910549 C42.4898645,50.4708135 42.8852421,50.0741354 43.3586617,49.8010087 C43.8320814,49.5278819 44.3549161,49.3913206 44.9271816,49.3913206 C45.8324016,49.3913206 46.5061041,49.6462351 46.9483092,50.1560716 C47.3905144,50.6659082 47.6142149,51.4306515 47.6194173,52.4503246 L47.6194173,57.9908676 L46.6907911,57.9908676 L46.6907911,52.442521 C46.6855886,51.6881711 46.5256168,51.1263188 46.2108708,50.7569474 C45.8961248,50.387576 45.3927988,50.2028931 44.7008777,50.2028931 C44.1234098,50.2028931 43.6122803,50.3836743 43.167474,50.745242 C42.7226676,51.1068098 42.3936198,51.5945288 42.1803209,52.2084136 L42.1803209,57.9908676 L41.2516947,57.9908676 L41.2516947,49.5473923 L42.141303,49.5473923 Z M58.3425195,53.7379156 L57.2734288,54.7679884 L57.2734288,57.9908676 L56.336999,57.9908676 L56.336999,46.0045662 L57.2734288,46.0045662 L57.2734288,53.6754869 L58.1552336,52.72345 L61.3859164,49.5473923 L62.5642572,49.5473923 L58.9824132,53.1058255 L62.8764004,57.9908676 L61.7604883,57.9908676 L58.3425195,53.7379156 Z M66.4197171,57.9908676 L65.4832873,57.9908676 L65.4832873,49.5473923 L66.4197171,49.5473923 L66.4197171,57.9908676 Z M65.319412,47.1048712 C65.319412,46.9279892 65.3766377,46.778422 65.4910908,46.6561653 C65.6055439,46.5339086 65.761614,46.4727811 65.9593057,46.4727811 C66.1569975,46.4727811 66.3143681,46.5339086 66.4314224,46.6561653 C66.5484767,46.778422 66.607003,46.9279892 66.607003,47.1048712 C66.607003,47.2817533 66.5484767,47.4300199 66.4314224,47.5496754 C66.3143681,47.6693309 66.1569975,47.7291577 65.9593057,47.7291577 C65.761614,47.7291577 65.6055439,47.6693309 65.4910908,47.5496754 C65.3766377,47.4300199 65.319412,47.2817533 65.319412,47.1048712 Z M71.617393,47.3858002 L71.617393,49.5473923 L73.3653953,49.5473923 L73.3653953,50.3121433 L71.617393,50.3121433 L71.617393,55.9385256 C71.617393,56.4067429 71.7019309,56.7552993 71.8710094,56.9842056 C72.0400878,57.2131118 72.3223145,57.3275631 72.717698,57.3275631 C72.8737704,57.3275631 73.1260837,57.3015515 73.4746454,57.2495273 L73.5136633,58.0142783 C73.2691499,58.1027194 72.9362004,58.1469392 72.5148049,58.1469392 C71.874908,58.1469392 71.4092989,57.9609557 71.1179637,57.5889831 C70.8266286,57.2170105 70.6809632,56.6694647 70.6809632,55.9463292 L70.6809632,50.3121433 L69.1280504,50.3121433 L69.1280504,49.5473923 L70.6809632,49.5473923 L70.6809632,47.3858002 L71.617393,47.3858002 Z M79.6321619,57.3587775 C80.2824636,57.3587775 80.8274082,57.1753951 81.2670122,56.808625 C81.7066162,56.4418548 81.944623,55.9671417 81.9810399,55.3844713 L82.8784518,55.3844713 C82.8524397,55.8995103 82.6911673,56.3690211 82.3946297,56.7930178 C82.0980922,57.2170145 81.7040152,57.5486634 81.2123871,57.7879745 C80.720759,58.0272855 80.1940225,58.1469392 79.6321619,58.1469392 C78.5240477,58.1469392 77.6461536,57.7619664 76.9984531,56.9920091 C76.3507525,56.2220519 76.0269071,55.1867871 76.0269071,53.8861836 L76.0269071,53.6052547 C76.0269071,52.7728685 76.1725725,52.036738 76.4639077,51.3968411 C76.7552429,50.7569442 77.1727303,50.2627223 77.7163826,49.9141606 C78.2600348,49.5655989 78.8960203,49.3913206 79.6243583,49.3913206 C80.5503879,49.3913206 81.3138307,49.6670444 81.9147095,50.2185003 C82.5155883,50.7699561 82.8368325,51.495682 82.8784518,52.3956996 L81.9810399,52.3956996 C81.9394206,51.734993 81.7014137,51.2017536 81.2670122,50.7959653 C80.8326107,50.3901771 80.2850648,50.187286 79.6243583,50.187286 C78.7815672,50.187286 78.1273735,50.4916226 77.6617575,51.100305 C77.1961415,51.7089874 76.9633369,52.5621705 76.9633369,53.6598798 L76.9633369,53.9330051 C76.9633369,55.0099048 77.1961415,55.850082 77.6617575,56.453562 C78.1273735,57.057042 78.7841684,57.3587775 79.6321619,57.3587775 Z M86.8821797,50.9754477 C87.1891221,50.4708136 87.5818985,50.0806384 88.0605206,49.8049105 C88.5391426,49.5291825 89.0619774,49.3913206 89.6290405,49.3913206 C90.5342605,49.3913206 91.2079629,49.6462351 91.6501681,50.1560716 C92.0923733,50.6659082 92.3160737,51.4306515 92.3212761,52.4503246 L92.3212761,57.9908676 L91.3926499,57.9908676 L91.3926499,52.442521 C91.3874475,51.6881711 91.2274757,51.1263188 90.9127296,50.7569474 C90.5979836,50.387576 90.0946576,50.2028931 89.4027366,50.2028931 C88.8252687,50.2028931 88.3141392,50.3836743 87.8693328,50.745242 C87.4245264,51.1068098 87.0954787,51.5945288 86.8821797,52.2084136 L86.8821797,57.9908676 L85.9535535,57.9908676 L85.9535535,46.0045662 L86.8821797,46.0045662 L86.8821797,50.9754477 Z M99.2045257,58.1469392 C98.4865926,58.1469392 97.8376012,57.9700598 97.2575321,57.6162957 C96.6774629,57.2625315 96.2261603,56.7696102 95.9036106,56.1375169 C95.581061,55.5054237 95.4197886,54.7966054 95.4197886,54.011041 L95.4197886,53.6754869 C95.4197886,52.8639104 95.5771592,52.1329822 95.8919053,51.4826805 C96.2066513,50.8323788 96.6449481,50.3212493 97.2068088,49.9492767 C97.7686695,49.5773041 98.3773427,49.3913206 99.0328469,49.3913206 C100.057722,49.3913206 100.870587,49.7411777 101.471466,50.4409024 C102.072345,51.140627 102.37278,52.0965562 102.37278,53.3087186 L102.37278,53.8315586 L96.3484148,53.8315586 L96.3484148,54.011041 C96.3484148,54.9682851 96.622838,55.765543 97.1716927,56.4028387 C97.7205473,57.0401344 98.4111574,57.3587775 99.2435436,57.3587775 C99.7429753,57.3587775 100.183873,57.2677366 100.566251,57.0856521 C100.948628,56.9035676 101.295884,56.6122368 101.608029,56.211651 L102.193297,56.6564551 C101.506579,57.6501162 100.510332,58.1469392 99.2045257,58.1469392 Z M99.0328469,50.187286 C98.330521,50.187286 97.7387553,50.4448016 97.2575321,50.9598405 C96.7763088,51.4748795 96.4836774,52.1667902 96.3796291,53.0355933 L101.444154,53.0355933 L101.444154,52.9341467 C101.418142,52.1225701 101.186638,51.4618735 100.749635,50.952037 C100.312632,50.4422004 99.7403751,50.187286 99.0328469,50.187286 Z M106.290668,49.5473923 L106.321883,50.9910549 C106.63923,50.4708135 107.034607,50.0741354 107.508027,49.8010087 C107.981447,49.5278819 108.504281,49.3913206 109.076547,49.3913206 C109.981767,49.3913206 110.655469,49.6462351 111.097675,50.1560716 C111.53988,50.6659082 111.76358,51.4306515 111.768783,52.4503246 L111.768783,57.9908676 L110.840156,57.9908676 L110.840156,52.442521 C110.834954,51.6881711 110.674982,51.1263188 110.360236,50.7569474 C110.04549,50.387576 109.542164,50.2028931 108.850243,50.2028931 C108.272775,50.2028931 107.761646,50.3836743 107.316839,50.745242 C106.872033,51.1068098 106.542985,51.5945288 106.329686,52.2084136 L106.329686,57.9908676 L105.40106,57.9908676 L105.40106,49.5473923 L106.290668,49.5473923 Z" id="Vegan-kitchen" fill="#FFFFFF"></path>
                    <g id="logo" transform="translate(125.570776, 0.000000)" fill="#0CCA22">
                        <path d="M26.4811504,57.666627 L13.1220029,57.666627 L13.1220029,15.6562745 L0,19.4434531 L0,9.44842501 L25.2559031,0.819904649 L26.4811504,0.819904649 L26.4811504,57.666627 Z M46.4461574,23.7381918 L52.7304901,23.7381918 C57.7105522,23.7381918 60.2005459,21.3305593 60.2005459,16.5152222 C60.2005459,14.6411451 59.6076903,13.1119731 58.4219612,11.9276605 C57.2362321,10.7433479 55.5630618,10.1512004 53.4023999,10.1512004 C51.636981,10.1512004 50.1021436,10.6587554 48.7978416,11.6738805 C47.4935397,12.6890056 46.8413985,13.9513859 46.8413985,15.4610591 L33.5217751,15.4610591 C33.5217751,12.4677414 34.3649475,9.79982443 36.0513178,7.457228 C37.737688,5.11463158 40.0761742,3.28613235 43.0668464,1.97167547 C46.0575187,0.657218583 49.3445739,0 52.9281106,0 C59.3310476,0 64.3637334,1.44457946 68.0263187,4.33378172 C71.6889041,7.22298398 73.5201693,11.1923239 73.5201693,16.2419207 C73.5201693,18.6886325 72.7626316,20.9986582 71.2475333,23.1720671 C69.732435,25.345476 67.5256946,27.1089041 64.6272457,28.4624043 C67.6837918,29.5556159 70.0815635,31.2149302 71.8206328,33.4403968 C73.5597021,35.6658634 74.4292237,38.4183729 74.4292237,41.6980079 C74.4292237,46.7736335 72.4530383,50.834073 68.500608,53.8794484 C64.5481777,56.9248237 59.3573972,58.4474886 52.9281106,58.4474886 C49.1601271,58.4474886 45.6622788,57.7382131 42.4344607,56.3196408 C39.2066427,54.9010685 36.76276,52.9359199 35.1027393,50.4241359 C33.4427186,47.912352 32.6127207,45.0557287 32.6127207,41.8541802 L46.0113922,41.8541802 C46.0113922,43.5981131 46.722819,45.1077637 48.1456939,46.3831773 C49.5685688,47.6585909 51.3207866,48.2962882 53.4023999,48.2962882 C55.7475085,48.2962882 57.6182974,47.6520838 59.0148228,46.3636558 C60.4113482,45.0752277 61.1096004,43.4289277 61.1096004,41.4247063 C61.1096004,38.5615329 60.384999,36.5313131 58.9357746,35.3339861 C57.4865502,34.136659 55.4840155,33.5380045 52.9281106,33.5380045 L46.4461574,33.5380045 L46.4461574,23.7381918 Z" id="13"></path>
                    </g>
                    <path d="M24.0519763,25.3157106 C23.0165473,26.4661873 21.5017758,27.3929462 19.5076163,28.0960153 C17.5134568,28.7990843 15.3275839,29.1506136 12.9499322,29.1506136 C9.29397311,29.1506136 6.37308456,28.0321114 4.18717894,25.7950735 C2.00127332,23.5580356 0.831639608,20.4454038 0.678242723,16.4570848 L0.659068208,14.0410959 C0.659068208,11.292735 1.14481773,8.89274891 2.11633134,6.84106557 C3.08784495,4.78938222 4.47798337,3.21069629 6.28678831,2.1049604 C8.09559326,0.999224518 10.1887902,0.446364869 12.5664419,0.446364869 C16.043438,0.446364869 18.7438218,1.24209928 20.6676744,2.83359197 C22.5915271,4.42508466 23.713225,6.799505 24.0328018,9.95692423 L17.5518158,9.95692423 C17.3217205,8.39738922 16.8231881,7.28527849 16.0562036,6.62055865 C15.2892192,5.95583881 14.2026742,5.62348388 12.7965361,5.62348388 C11.1091704,5.62348388 9.80531639,6.33932527 8.88493507,7.77102954 C7.96455376,9.2027338 7.49797856,11.2479949 7.48519549,13.9068743 L7.48519549,15.5942316 C7.48519549,18.3809417 7.96135785,20.4741386 8.91369685,21.8738852 C9.86603585,23.2736318 11.3648288,23.9734946 13.4101206,23.9734946 C15.1614017,23.9734946 16.4652557,23.5836167 17.3217216,22.8038492 L17.3217216,18.4704088 L12.64314,18.4704088 L12.64314,13.8493507 L24.0519763,13.8493507 L24.0519763,25.3157106 Z M42.7366403,13.8685253 L40.6082691,13.7151291 C38.5757604,13.7151291 37.2719064,14.3542732 36.6966681,15.6325806 L36.6966681,28.7671233 L30.2348566,28.7671233 L30.2348566,8.02029823 L36.2940033,8.02029823 L36.5049229,10.6855558 C37.5914842,8.65304706 39.1062557,7.63680793 41.049283,7.63680793 C41.7395689,7.63680793 42.3403644,7.71350523 42.8516873,7.86690211 L42.7366403,13.8685253 Z M57.2604345,29.1506136 C54.0774491,29.1506136 51.5016984,28.2014846 49.533105,26.3031981 C47.5645116,24.4049117 46.5802297,21.9346197 46.5802297,18.8922481 L46.5802297,18.3553617 C46.5802297,16.2333715 46.9733033,14.3606793 47.7594624,12.7372289 C48.5456214,11.1137785 49.6928851,9.85786034 51.2012878,8.96943672 C52.7096905,8.08101309 54.499294,7.63680793 56.570152,7.63680793 C59.4846928,7.63680793 61.7856116,8.54119684 63.4729773,10.3500018 C65.160343,12.1588067 66.0040133,14.6802302 66.0040133,17.9143479 L66.0040133,20.4262093 L53.1570883,20.4262093 C53.3871836,21.589469 53.8921075,22.5034451 54.671875,23.168165 C55.4516425,23.8328848 56.4614902,24.1652397 57.7014483,24.1652397 C59.7467401,24.1652397 61.3446004,23.4493983 62.495077,22.0176941 L65.4479523,25.5074558 C64.6426187,26.6195832 63.5017464,27.5047978 62.0253014,28.1631261 C60.5488564,28.8214544 58.9605833,29.1506136 57.2604345,29.1506136 Z M56.5318029,12.6221818 C54.639908,12.6221818 53.5150144,13.8749042 53.1570883,16.3803867 L59.6764234,16.3803867 L59.6764234,15.8818493 C59.7019895,14.8464203 59.4399404,14.0442945 58.8902682,13.4754477 C58.3405961,12.9066009 57.5544488,12.6221818 56.5318029,12.6221818 Z M81.1605665,29.1506136 C77.9775811,29.1506136 75.4018304,28.2014846 73.433237,26.3031981 C71.4646436,24.4049117 70.4803617,21.9346197 70.4803617,18.8922481 L70.4803617,18.3553617 C70.4803617,16.2333715 70.8734353,14.3606793 71.6595944,12.7372289 C72.4457534,11.1137785 73.5930171,9.85786034 75.1014198,8.96943672 C76.6098225,8.08101309 78.399426,7.63680793 80.4702839,7.63680793 C83.3848248,7.63680793 85.6857435,8.54119684 87.3731093,10.3500018 C89.060475,12.1588067 89.9041452,14.6802302 89.9041452,17.9143479 L89.9041452,20.4262093 L77.0572203,20.4262093 C77.2873156,21.589469 77.7922395,22.5034451 78.572007,23.168165 C79.3517745,23.8328848 80.3616222,24.1652397 81.6015803,24.1652397 C83.6468721,24.1652397 85.2447324,23.4493983 86.395209,22.0176941 L89.3480843,25.5074558 C88.5427507,26.6195832 87.4018784,27.5047978 85.9254334,28.1631261 C84.4489884,28.8214544 82.8607153,29.1506136 81.1605665,29.1506136 Z M80.4319349,12.6221818 C78.54004,12.6221818 77.4151464,13.8749042 77.0572203,16.3803867 L83.5765553,16.3803867 L83.5765553,15.8818493 C83.6021215,14.8464203 83.3400724,14.0442945 82.7904002,13.4754477 C82.2407281,12.9066009 81.4545808,12.6221818 80.4319349,12.6221818 Z M100.957352,8.02029823 L101.168272,10.4554616 C102.599976,8.57634977 104.574931,7.63680793 107.093197,7.63680793 C109.253536,7.63680793 110.867375,8.28234348 111.934762,9.57343393 C113.002149,10.8645244 113.555008,12.8075225 113.593358,15.4024864 L113.593358,28.7671233 L107.112372,28.7671233 L107.112372,15.6709297 C107.112372,14.6227176 106.901454,13.852549 106.479613,13.3604006 C106.057771,12.8682523 105.290798,12.6221818 104.178671,12.6221818 C102.913146,12.6221818 101.973605,13.1207142 101.360017,14.1177939 L101.360017,28.7671233 L94.8982056,28.7671233 L94.8982056,8.02029823 L100.957352,8.02029823 Z" id="Green" fill="#FFFFFF"></path>
                </g>
            </g>
        </g>
    </g>
</svg>