<?xml version="1.0" encoding="UTF-8"?>
<svg width="73px" height="73px" viewBox="0 0 73 73" version="1.1" xmlns="http://www.w3.org/2000/svg" xmlns:xlink="http://www.w3.org/1999/xlink">
    <!-- Generator: sketchtool 52.2 (67145) - http://www.bohemiancoding.com/sketch -->
    <title>FA815631-7CCE-4EF9-A97F-2700C09292E0</title>
    <desc>Created with sketchtool.</desc>
    <g id="Page-1" stroke="none" stroke-width="1" fill="none" fill-rule="evenodd">
        <g id="iPhone-8" transform="translate(-278.000000, -1081.000000)">
            <g id="logo_mob" transform="translate(278.000000, 1081.000000)">
                <circle id="Oval" stroke-opacity="0" stroke="#FFFFFF" fill="#000000" cx="36.5" cy="36.5" r="36.5"></circle>
                <path d="M29.1452741,56.4655979 L19.9913896,56.4655979 L19.9913896,27.7147629 L11,30.3066132 L11,23.4662659 L28.3057167,17.5611222 L29.1452741,17.5611222 L29.1452741,56.4655979 Z M42.8255909,33.245825 L47.1317082,33.245825 C50.5441201,33.245825 52.2503005,31.5981015 52.2503005,28.3026052 C52.2503005,27.0200337 51.8440671,25.9735066 51.031588,25.1629927 C50.219109,24.3524787 49.072628,23.9472278 47.5921107,23.9472278 C46.3824197,23.9472278 45.3307265,24.2945857 44.4369996,24.989312 C43.5432727,25.6840382 43.0964159,26.5479797 43.0964159,27.5811623 L33.9696138,27.5811623 C33.9696138,25.5326106 34.547368,23.7067548 35.7028938,22.1035404 C36.8584195,20.500326 38.4607846,19.2489468 40.5100373,18.3493654 C42.5592899,17.449784 44.8116285,17 47.2671207,17 C51.6545074,17 55.1029778,17.9886341 57.6126352,19.9659319 C60.1222926,21.9432297 61.3771025,24.6597467 61.3771025,28.1155645 C61.3771025,29.7900329 60.8580265,31.3709567 59.8198589,32.8583834 C58.7816912,34.3458102 57.2696002,35.5526562 55.2835403,36.4789579 C57.3779307,37.2271246 59.0209192,38.3627178 60.2125551,39.8857715 C61.404191,41.4088253 62,43.2925739 62,45.5370741 C62,49.0107054 60.6458886,51.7895687 57.9376252,53.8737475 C55.2293618,55.9579263 51.6725625,57 47.2671207,57 C44.6852429,57 42.2884658,56.5145896 40.0767173,55.5437542 C37.8649689,54.5729188 36.1903844,53.2280202 35.0529138,51.509018 C33.9154432,49.7900159 33.3467164,47.8350143 33.3467164,45.6439546 L42.5276834,45.6439546 C42.5276834,46.8374587 43.0151635,47.8706258 43.9901384,48.743487 C44.9651132,49.6163482 46.1657586,50.0527722 47.5921107,50.0527722 C49.1990136,50.0527722 50.4809058,49.6118949 51.4378255,48.7301269 C52.3947452,47.848359 52.8731979,46.7216724 52.8731979,45.3500334 C52.8731979,43.3905491 52.3766904,42.0011174 51.3836605,41.1816967 C50.3906306,40.362276 49.0184644,39.9525718 47.2671207,39.9525718 L42.8255909,39.9525718 L42.8255909,33.245825 Z" id="13" fill="#0CCA22"></path>
            </g>
        </g>
    </g>
</svg>